1262325600000:::http://azstarnet.com//news/local/hot-dry-hit-us-hard-may-bring-more-rain/article_02b6bd3d-fee0-58bb-8035-657b9e6366df.html:::Hot, dry '09 hit us hard; '10 may bring more rain  :::
1262412000000:::http://azstarnet.com//news/local/tour-director-gives-tucson-a-sweet-fundraiser/article_16dbbbdf-e033-542a-83c4-a5a99756a36f.html:::Tour director gives Tucson a sweet fundraiser  :::
1262498400000:::http://azstarnet.com//news/local/sweat-lodge-probe-stretches-into/article_7fe82a7d-331d-5894-b0c3-e2cdea634928.html:::Sweat lodge probe stretches into 2010  :::
1262498400000:::http://azstarnet.com//news/local/low-san-carlos-lake-level-threatens-fish-population/article_2f272507-d844-5965-b7c6-c5084fe2cc9b.html:::Low San Carlos Lake level threatens fish population  :::
1262671200000:::http://azstarnet.com//news/local/govt-and-politics/tucson-seeks-minutes-of-your-time/article_97659562-6010-51e2-bb5c-b2b71269958f.html:::Tucson seeks 12 minutes of your time  :::
1262757600000:::http://azstarnet.com//news/local/community-calendar/article_24c49538-c8f6-57e2-8eaf-eb6cdd672066.html:::Community calendar  :::
1262844000000:::http://azstarnet.com//news/local/northwest/what-s-happening/article_b9fde516-16b1-5d03-b48d-5b2cd09874cc.html:::What's happening  :::
1262844000000:::http://azstarnet.com//news/local/tour-de-cookie-bike-ride-a-sweet-fundraiser-for-kids/article_97c2ebf7-a8b9-5d16-97b7-c53501ba829b.html:::'Tour de Cookie' bike ride a sweet fundraiser for kids  :::
1262844000000:::http://azstarnet.com//news/local/foothills/what-s-happening/article_8bbd9898-09b0-5f81-9b46-e3bfb01551a1.html:::What's happening  :::
1262844000000:::http://azstarnet.com//news/local/east/what-s-happening/article_3800b5ff-9e98-5c2d-b54c-f6102f861223.html:::What's happening  :::
1263189600000:::http://azstarnet.com//news/science/scientists-hope-phoenix-will-rise-anew/article_8e45ad0a-443b-5fbd-b757-552b95cecef5.html:::Scientists hope Phoenix will rise anew  :::
1263189600000:::http://azstarnet.com//news/local/once-unwanted-water-art-finds-a-welcoming-home/article_99e829b8-7187-5a77-a60b-371110ab2aeb.html:::Once-unwanted water art finds a welcoming home  :::
1263448800000:::http://azstarnet.com//news/local/east/what-s-happening/article_d67e9581-d521-593d-988b-d30202b6dd07.html:::What's happening  :::
1263448800000:::http://azstarnet.com//business/local/tep-fee-rising-for-renewable--energy-projects/article_98847f35-e802-55f2-a8d9-fcab5344822c.html:::TEP fee rising for renewable- energy projects  :::
1263621600000:::http://azstarnet.com//news/local/get-involved/article_bf0e49de-3548-5e15-b885-8a513d6dc2f8.html:::Get involved   :::
1263621600000:::http://azstarnet.com//news/local/rosemont-water-graphic/image_0a7c792e-0320-11df-82c6-001cc4c03286.html:::Rosemont water graphic:::
1263708000000:::http://azstarnet.com//news/local/neighbors-briefs/article_5a380e1a-62a4-5b39-b91f-b06da5a88ad3.html:::Neighbors Briefs   :::
1263708000000:::http://azstarnet.com//lifestyles/get-lost-with-gps-or-on-your-own-the-choice/article_b3bde18f-cc42-5a32-adcd-bf15be65eef2.html:::Get lost with GPS or on your own; the choice is yours   :::
1263794400000:::http://azstarnet.com//news/local/it-s-been-there-for-decades-its-origin-unknown/article_c7b18c89-2d08-55dd-ab33-56a38a8bb258.html:::It's been there for decades, its origin unknown   :::
1263967200000:::http://azstarnet.com//news/local/d-m-guiding-haiti-air-traffic/article_19ab4bef-5304-5f9e-8c30-4e85b99e7096.html:::D-M guiding Haiti air traffic   :::
1264053600000:::http://azstarnet.com//news/local/group-stranded-in-sabino-canyon-rescued/article_bfb9820e-06c8-11df-a856-001cc4c03286.html:::Group stranded in Sabino Canyon rescued:::
1264140000000:::http://azstarnet.com//news/local/big-winter-storm-makes-windy-entrance/article_5c806fc8-e0fa-56dc-8e6a-d84775e5c1c5.html:::Big winter storm makes windy entrance   :::
1264226400000:::http://azstarnet.com//news/local/trapped-in-swollen-river-dad-clings-to-boy--/article_70e8517f-a1be-50c8-8cef-f7551a7223ab.html:::Trapped in swollen river, dad clings to boy, 6 - but in vain   :::
1264399200000:::http://azstarnet.com//news/local/artist-s-pocket-sketch-technique-was-invented-through-serendipity/article_f17afbc0-a7be-5b38-8acd-aaaa1dd86cd9.html:::Artist's 'pocket sketch' technique was invented through serendipity   :::
1264399200000:::http://azstarnet.com//news/local/hikers-stranded-on-kitt-peak-rescued/article_b404ddec-09d8-11df-9585-001cc4c03286.html:::2 hikers stranded on Kitt Peak rescued:::
1264658400000:::http://azstarnet.com//news/local/northwest/police-reports/article_1df9e759-22f8-5909-9b76-d133e8f5fa38.html:::Police Reports   :::
1264658400000:::http://azstarnet.com//news/local/foothills/what-s-happening/article_e9330d9e-0fce-5f60-92fc-0e9acb90851a.html:::What's happening   :::
1264658400000:::http://azstarnet.com//news/local/volunteer-connection/article_a61a92f3-f278-5029-af2f-4a57c472142e.html:::Volunteer Connection   :::
1264658400000:::http://azstarnet.com//news/local/northwest/fitness-professionals-gung-ho-about-their-mission/article_7f0f08ae-f902-5323-a92e-386da384faea.html:::Fitness professionals gung-ho about their mission   :::
1264658400000:::http://azstarnet.com//news/local/beat-back-buffelgrass-day-nears/article_619b34dc-ca81-56bb-9df6-1913742affac.html:::Beat Back Buffelgrass Day nears   :::
1264917600000:::http://azstarnet.com//news/local/deaths/article_93f0a492-554d-5f80-9319-a1206c71e129.html:::Deaths   :::
1264917600000:::http://azstarnet.com//news/local/year-plan-may-boost-sewer-fees-by/article_4e25ce44-0ee4-11df-98da-001cc4c03286.html:::4-year plan may boost sewer fees by 50%:::
1265004000000:::http://azstarnet.com//news/local/two-free-spay-neuter-days-in-feb/article_1ab9f060-8560-5f1c-aaf8-c69d26a8d159.html:::Two free spay, neuter days in Feb.   :::
1265263200000:::http://azstarnet.com//news/local/education/precollegiate/tucson-high-evac-called-a-success/article_4a250f83-aa0e-5fbd-a3b3-256dde11e4fb.html:::Tucson High evac called a success   :::
1265263200000:::http://azstarnet.com//news/local/in-ugliness-tep-sees-beauty/article_c9dd53b2-b44c-518c-8197-8cee825299a1.html:::In ugliness, TEP sees beauty   :::
1265436000000:::http://azstarnet.com//news/local/get-involved/article_a4d8e9e5-c4c9-54e0-bb53-a37dbcc7a8c6.html:::Get involved   :::
1265608800000:::http://azstarnet.com//news/local/neighborhood-briefs/article_21616bb1-8ece-5cdc-ab50-8e087985cf76.html:::Neighborhood Briefs   :::
1265608800000:::http://azstarnet.com//news/local/bonnie-henry-city-slickers-once-flocked-to-tony-el-dorado/article_9a6fb59a-4791-5b00-9e75-296bcdac1d60.html:::Bonnie Henry: City slickers once flocked to tony El Dorado Lodge   :::
1265695200000:::http://azstarnet.com//news/local/pe-a-blanca-full-soon-will-invite-anglers/image_59c55fe2-ee51-5d28-8cf1-bc4f1b93ac1a.html:::Peña Blanca full, soon will invite anglers   :::
1265695200000:::http://azstarnet.com//news/local/pe-a-blanca-full-soon-will-invite-anglers/article_4da16955-2a81-5159-8a01-30d98c67cc8e.html:::Peña Blanca full, soon will invite anglers   :::
1265781600000:::http://azstarnet.com//news/local/pima-residents-oppose-proposed-marana-landfill/article_c22b883e-167c-11df-8fbb-001cc4c03286.html:::Pima residents oppose proposed Marana landfill:::
1265868000000:::http://azstarnet.com//news/local/east/this-week-s-calendar/article_ac5f513f-ba22-547e-a9a1-58df356ec7d5.html:::This week's calendar:::
1265868000000:::http://azstarnet.com//news/local/northwest/this-week-s-calendar/article_cc74755a-989b-542c-b6d5-c6194d8014e7.html:::This week's calendar:::
1265868000000:::http://azstarnet.com//news/local/landfill-proposal-bothers-neighbors/article_433673a8-0216-5d05-9915-9ce614e2a84e.html:::Landfill proposal bothers neighbors   :::
1266040800000:::http://azstarnet.com//news/local/border/wet-winter-is-deadly-for-border-crossers/article_4ef55a34-caf6-5188-9e92-1a05a020e3e9.html:::Wet winter is deadly for border crossers:::
1266559200000:::http://azstarnet.com//news/local/cranes-migrate-there-in-record-numbers/article_4af39663-c983-57dc-9f40-d5dd7de21a67.html:::Cranes migrate there in record numbers   :::
1266732000000:::http://azstarnet.com//news/local/wet-winter-energizes-desert-wonder/article_c5b025b5-d6dc-5f73-a452-b4f5be9a9a4c.html:::Wet winter energizes desert wonder   :::
1266991200000:::http://azstarnet.com//news/local/new-red-cross-headquarters-open-today/article_27d2b0a5-dc31-5489-990c-919aed9882a8.html:::New Red Cross headquarters open today   :::
1267077600000:::http://azstarnet.com//news/local/in-brief/article_bbf4061d-4757-5a7c-8182-caf79cf1b3c7.html:::In brief   :::
1267164000000:::http://azstarnet.com//news/local/border/bags-quilts-made-of-migrants-discards-carry-message/article_e49d5e21-6e38-5541-a4fb-d43ef0249252.html:::Bags, quilts made of migrants' discards carry message   :::
1267336800000:::http://azstarnet.com//news/local/neighborhood-briefs/article_d85162a3-1004-50e3-a48e-33e91b1fbcd5.html:::Neighborhood Briefs   :::
1267423200000:::http://azstarnet.com//news/local/a-tucson-chileno-en-arizona-finds-family-is-safe/article_1d35ec44-1d10-5190-b6cc-d565d72732e7.html:::A Tucson 'Chileno en Arizona' finds family is safe   :::
1267423200000:::http://azstarnet.com//news/local/new-ua-student-rec-center-addition-reopens-after-flooding/article_20bdd8b8-256c-11df-b59a-001cc4c03286.html:::New UA student rec center addition reopens after flooding:::
1267509600000:::http://azstarnet.com//news/local/el-ni-o-giving-us-a-rainy-winter-as-expected/article_81d08ebf-cee8-5e41-b89f-ccf5b0b0eec0.html:::El Niño giving us a rainy winter, as expected   :::
1267596000000:::http://azstarnet.com//news/local/planned-burn-at-tucson-wetlands-thursday-targets-mosquitoes/article_6cafa0fa-2727-11df-9b10-001cc4c03286.html:::Planned burn at Tucson wetlands Thursday targets mosquitoes:::
1267682400000:::http://azstarnet.com//news/local/tucson-fire-plans-west-side-blaze/article_582b344d-d9ae-523d-90db-106fbb749c8c.html:::Tucson Fire plans west-side blaze   :::
1267768800000:::http://azstarnet.com//news/local/controlled-burn-at-sweetwater-wetlands/image_09800dd0-1544-556a-b341-ae0f060d3b7f.html:::Controlled burn at Sweetwater Wetlands   :::
1268546400000:::http://azstarnet.com//news/local/neighborhood-briefs/article_a5a18ddc-9981-5194-8f1d-aa2fca98dac2.html:::Neighborhood Briefs   :::
1268546400000:::http://azstarnet.com//news/local/forest-service-user-fee-upheld/article_849f236e-15fc-5389-813f-333948808658.html:::Forest Service user fee upheld   :::
1268546400000:::http://azstarnet.com//lifestyles/bonnie-henry-could-you-throw-in-a-storage-shed-too/article_b86c2463-bcee-5464-a98d-01e9bfdbae1c.html:::Bonnie Henry: Could you throw in a storage shed, too?   :::
1268546400000:::http://azstarnet.com//news/local/morales-tireless-fighter-for-the-powerless-lost-to-community/article_6550bd2a-6e2f-54f7-9948-2483734d4031.html:::Morales, tireless fighter for the powerless, lost to community   :::
1268802000000:::http://azstarnet.com//news/local/letter-to-the-board-of-trustees/pdf_23823878-3142-11df-9623-001cc4c002e0.html:::Letter to the Board of Trustees:::
1268802000000:::http://azstarnet.com//news/local/recreational-hiker-vanished-in-manning-camp-quest-in/article_3d59d168-41ad-58bf-aedc-ab17dc2b09b3.html:::Recreational hiker, 34, vanished in Manning Camp quest in 1994   :::
1268888400000:::http://azstarnet.com//news/local/state-to-stock-urban-lakes-with-catfish/article_cbccfe54-32a6-11df-8851-001cc4c002e0.html:::State to stock urban lakes with catfish:::
1269061200000:::http://azstarnet.com//news/local/kicking-off-aerospace-arizona-days/article_d54094df-e895-543a-83e2-a5bb304f5047.html:::Kicking off Aerospace & Arizona Days   :::
1269147600000:::http://azstarnet.com//news/local/get-involved/article_ffa5fdbb-71c8-5cea-a070-9634551c8db9.html:::Get involved   :::
1269234000000:::http://azstarnet.com//news/local/neighborhood-briefs/article_6fefcbc7-1e6a-50ef-bf80-afb1b51df93c.html:::Neighborhood Briefs   :::
1269320400000:::http://azstarnet.com//news/science/environment/contrasting-views-on-what-to-do-about-dwindling-water/article_584c200b-2ae9-5006-ac5e-b6790ce930f2.html:::Contrasting views on what to do about dwindling water   :::
1269493200000:::http://azstarnet.com//news/local/cancer-patient-blames-toxic-burn-pits-in-iraq/article_4e610fde-7f1b-5b3b-bd42-f5f939d6981c.html:::Cancer patient blames toxic burn pits in Iraq   :::
1269752400000:::http://azstarnet.com//news/local/tough-economic-times-clip-white-dove-s-wings/image_10af2703-181f-5711-8011-9ecf866f2e19.html:::Tough economic times clip White Dove's wings   :::
1269752400000:::http://azstarnet.com//news/local/tough-economic-times-clip-white-dove-s-wings/article_ff210b79-41e6-5cc4-8099-f4a142ab707d.html:::Tough economic times clip White Dove's wings   :::
1269838800000:::http://azstarnet.com//news/local/latest-buzz-more-bees/article_20b7f5df-e472-5f18-bc0f-652cf8974364.html:::Latest buzz: more bees   :::
1270357200000:::http://azstarnet.com//news/local/get-involved/article_2cdd11d3-bcc5-577e-8505-6c68a99da6d8.html:::Get involved   :::
1270357200000:::http://azstarnet.com//news/local/tour-backyards-in-jefferson-park/article_47ee5488-4a44-5968-84e7-9fa904b4c98d.html:::Tour 11 backyards in Jefferson Park   :::
1270357200000:::http://azstarnet.com//news/local/tour-backyards-in-jefferson-park/image_e14a44e8-9d2b-5129-a381-6b5000fd2300.html:::Tour 11 backyards in Jefferson Park   :::
1270357200000:::http://azstarnet.com//news/local/baja-california-earthquake-tremors-felt-in-tucson/article_b7a636c8-4040-11df-8c4d-001cc4c03286.html:::Baja California earthquake tremors felt in Tucson:::
1270443600000:::http://azstarnet.com//news/local/rare-quake-lightly-shakes-tucson/article_27a1fa13-0483-511f-9600-a736d8093d2c.html:::Rare quake lightly shakes Tucson   :::
1270789200000:::http://azstarnet.com//news/local/winners-of-the-statewide-high-school-poetry-contest/article_b6781be6-43f5-11df-bfcc-001cc4c002e0.html:::Winners of the Statewide High School Poetry Contest:::
1270962000000:::http://azstarnet.com//news/local/neighborhood-briefs/article_f3851588-3e32-5fe8-be2c-c875ed178e29.html:::Neighborhood Briefs   :::
1270962000000:::http://azstarnet.com//news/local/it-s-been-years-inspiring-people-stories-make-time-fly/article_1dda18c0-3adb-5e45-a1c3-65788f53d77f.html:::It's been 10 years? Inspiring people, stories make time fly   :::
1270962000000:::http://azstarnet.com//news/local/get-involved/article_e16d746e-8e08-53e6-a4f6-e0ee49bf03cf.html:::Get involved   :::
1271048400000:::http://azstarnet.com//news/local/obesity-special-report-tuna-apple-salad-recipe/pdf_b81b9074-4380-11df-81e5-001cc4c03286.html:::Obesity special report: Tuna Apple Salad recipe:::
1271048400000:::http://azstarnet.com//news/local/obesity-special-report-chili-verde-recipe/pdf_5e6e0aa2-4380-11df-9ef0-001cc4c03286.html:::Obesity special report: Chili verde recipe:::
1271048400000:::http://azstarnet.com//news/local/obesity-special-report-meatball-soup-recipe/pdf_2493b354-4380-11df-a121-001cc4c03286.html:::Obesity special report: Meatball soup recipe:::
1271048400000:::http://azstarnet.com//news/local/neighborhood-briefs-neighborhood-briefs/article_81ce8bd0-aaee-5660-be09-062c0e90af67.html:::Neighborhood Briefs Neighborhood Briefs   :::
1271048400000:::http://azstarnet.com//news/local/school-s-wicked-witch-sweeps-out-the-no-foods/article_d26e56b7-b1d5-52d8-bdef-9717ce18a61b.html:::School's 'Wicked Witch' sweeps out the 'no' foods   :::
1271048400000:::http://azstarnet.com//news/local/do-you-have-an-appliance-rebate-headache-or-success-story/article_71fdc776-4676-11df-a51a-001cc4c03286.html:::Do you have an appliance-rebate headache or success story? :::
1271826000000:::http://azstarnet.com//news/local/first-graders-learn-pool-safety/article_e0248300-4d94-11df-9357-001cc4c03286.html:::First-graders learn pool safety:::
1272258000000:::http://azstarnet.com//news/science/environment/protections-stepped-up-for-small-porpoise/article_396d7966-57ec-5e24-a6f9-3b348c3ebb09.html:::Protections stepped up for small porpoise   :::
1272258000000:::http://azstarnet.com//news/local/bonnie-henry-family-s-lodge-near-wilmot-was-miles-from/article_d5043210-df62-5b1c-bebf-8fa65c0d141f.html:::Bonnie Henry: Family's lodge near Wilmot was 8 miles from Tucson   :::
1273294800000:::http://azstarnet.com//news/local/s-tucson-partnership-builds-homes-optimism-for-the-needy-revitalization/article_6dc4a935-1e57-5db9-8959-4e76843febd4.html:::S. Tucson partnership builds homes, optimism for the needy Revitalization program boosts quality of life for less fortunate   :::
1273381200000:::http://azstarnet.com//news/local/table-city-spending-and-staffing-years-ago-and-today/article_698efee6-593d-11df-b769-001cc4c002e0.html:::Table: City spending and staffing, 10 years ago and today:::
1273381200000:::http://azstarnet.com//news/local/it-wasn-t-always-like-this/article_c7a8048c-e5c4-526b-9319-15e05a8f2817.html:::'It wasn't always like this'   :::
1273467600000:::http://azstarnet.com//news/local/sewer-divides-neighbors/article_08e39376-65a1-51c2-b325-e63549bb92ae.html:::Sewer divides neighbors   :::
1273640400000:::http://azstarnet.com//news/local/la-approves-boycott-over-ariz-immigration-law/article_03d7fd74-5e00-11df-b468-001cc4c03286.html:::LA approves boycott over Ariz. immigration law:::
1274072400000:::http://azstarnet.com//news/local/a-hands-off-policy/article_515d6c80-2faf-5154-afb3-db4c24b61a6c.html:::A hands-off policy   :::
1274158800000:::http://azstarnet.com//business/local/sahuarita-won-t-boom-westward/article_5a118a3d-4e78-5f52-97d0-4dcbb897503c.html:::Sahuarita won't boom westward   :::
1274331600000:::http://azstarnet.com//news/local/neighborhood-briefs/article_69e2927c-f7ec-5c93-8619-f24022448e97.html:::Neighborhood Briefs   :::
1274590800000:::http://azstarnet.com//news/local/neighborhood-briefs/article_b0fee891-8904-5cb4-b9d8-db9811fa6cf0.html:::Neighborhood Briefs   :::
1274677200000:::http://azstarnet.com//news/local/neighborhood-briefs/article_c709f27b-15f1-54f7-8c4a-8fb88996695d.html:::Neighborhood Briefs   :::
1274677200000:::http://azstarnet.com//news/local/house-proposal-would-add-acres-to-park/article_ae99ef90-0f87-59c1-97fb-0314a010c595.html:::House proposal would add 415 acres to park   :::
1274850000000:::http://azstarnet.com//news/local/wildfire-burning-near-arizona-new-mexico-border/article_a94ce6f4-68fd-11df-aec2-001cc4c002e0.html:::Wildfire burning near Arizona-New Mexico border:::
1274936400000:::http://azstarnet.com//news/local/fire-destroys-home-in-picture-rocks/article_cd055668-a680-59f2-8788-dc74c830fc1a.html:::Fire destroys home in Picture Rocks   :::
1274936400000:::http://azstarnet.com//news/local/all-city-of-tucson-departments-will-be-closed-friday/article_9c4b1014-69bd-11df-b474-001cc4c03286.html:::All City of Tucson departments will be closed Friday:::
1275022800000:::http://azstarnet.com//news/local/furloughs-closings-for-holiday/article_11670bee-597b-5172-98e6-87896d09ae20.html:::Furloughs, closings for holiday   :::
1275195600000:::http://azstarnet.com//news/local/teacher-fosters-kids-involvement/article_42b422b3-6477-530f-a95d-4ed591301980.html:::Teacher fosters kids' involvement   :::
1275282000000:::http://azstarnet.com//news/local/wet-slippery-memories/article_a7e0ea2d-c7a7-542d-9ae3-1dd78797c9a3.html:::Wet, slippery memories   :::
1275282000000:::http://azstarnet.com//news/local/portal-area-wildfire-grows-to-acres/article_d7f332be-6ce1-11df-8e85-001cc4c002e0.html:::Portal-area wildfire grows to 1,400 acres:::
1275368400000:::http://azstarnet.com//news/local/summer-proof-your-kids/article_2ba25ae6-32fe-5662-9ed5-6d517ff478e1.html:::Summer-proof your kids   :::
1275454800000:::http://azstarnet.com//news/local/take-spot-for-a-stroll-at-botanical-gardens/article_6d3a877f-06cb-5884-a2fb-80195d9d9ffe.html:::Take Spot for a stroll at Botanical Gardens   :::
1275454800000:::http://azstarnet.com//news/local/our-vets-on-the-streets/article_0eb3c444-2155-531b-9646-ad3494d11c50.html:::Our vets on the streets   :::
1275541200000:::http://azstarnet.com//news/local/red-cross-to-honor-local-heroes/article_a10236e7-dae6-5286-b0da-7908ac084455.html:::Red Cross to honor local heroes   :::
1275627600000:::http://azstarnet.com//news/local/northwest/finding-replacement-for-council-first-task-for-new-mayor-in/article_74cf2b2d-0b56-5a5e-9d0a-47aeac9bbb60.html:::Finding replacement for council first task for new mayor in OV   :::
1275714000000:::http://azstarnet.com//news/local/girl-ties-az-catch-and-release-record-with--lb/article_0e5e0d96-b7ab-5908-9403-f58244d149ed.html:::Girl ties AZ catch-and-release record with 21/2-lb. Patagonia Lake sunfish   :::
1276664400000:::http://azstarnet.com//news/local/tucson-police-id-slain-teen-found-in-park-lake/article_0a838e7c-7958-11df-b816-001cc4c03286.html:::Tucson police ID slain teen found in park lake:::
1277096400000:::http://azstarnet.com//news/local/summer-s-many-pluses/image_b6a65630-da12-5818-b51f-d6c71dac5568.html:::Summer's many pluses   :::
1277096400000:::http://azstarnet.com//news/local/summer-s-many-pluses/image_f051844c-6577-5d01-bc9b-11c29ae62ce4.html:::Summer's many pluses   :::
1277096400000:::http://azstarnet.com//news/local/ua-linked-group-confirms-how-stars-are-created/article_609fcd3f-738f-5b0c-8485-3f6a57a841f0.html:::UA-linked group confirms how stars are created   :::
1277096400000:::http://azstarnet.com//news/local/summer-s-many-pluses/article_913e4a02-b272-56dd-a77a-72dd37602955.html:::Summer's many pluses   :::
1277096400000:::http://azstarnet.com//news/local/bonnie-henry-ranch-tale-has-familiar-roots/article_cdd580a8-7592-5bf8-99e8-f8898ff88a5f.html:::Bonnie Henry: Ranch tale has familiar roots   :::
1277182800000:::http://azstarnet.com//news/local/forum-here-targets-gap-between-arizonans-hopes-leaders-actions/article_acb0532f-5407-5f84-a002-c46d5bede598.html:::Forum here targets gap between Arizonans' hopes, leaders' actions   :::
1277442000000:::http://azstarnet.com//news/local/we-re-still-waiting-for-rains-despite-annual-plea-to/article_de690ce3-adc3-5ce8-94be-f6461a3a5ec3.html:::We're still waiting for rains despite annual plea to saint   :::
1277528400000:::http://azstarnet.com//news/local/ben-s-bells-woman-s-poetry-idea-gives-inmates-a/article_98f03f1e-64b3-56e2-a310-447bff72893a.html:::Ben's Bells: Woman's poetry idea gives inmates a voice   :::
1277528400000:::http://azstarnet.com//news/local/tucson-group-has-evidence-of-big-ancient-lake-on-mars/article_712a7d70-2a30-5c8c-9eea-9f83641c47b6.html:::Tucson group has evidence of big, ancient lake on Mars   :::
1278046800000:::http://azstarnet.com//news/local/neighborhood-briefs/article_e88d93e2-7ad0-5773-8f5f-d3a8ae4a0fb9.html:::Neighborhood Briefs   :::
1278219600000:::http://azstarnet.com//news/local/monsoon-time-seems-to-bring-on-the-rhyme/article_c8fec0b6-6158-57a3-ae08-c8b41b3bdf21.html:::Monsoon time seems to bring on the rhyme   :::
1278306000000:::http://azstarnet.com//staff/brian-j-pedersen/near-drowning-sunday-was-th-such-incident-in-tucson-area/article_243d4bb2-8855-11df-9d67-001cc4c03286.html:::Near drowning Sunday was 6th such incident in Tucson area this year:::
1278392400000:::http://azstarnet.com//news/local/neighborhood-briefs/article_14389d32-0b36-5ee8-a265-35c4b7a88e0f.html:::Neighborhood Briefs   :::
1278392400000:::http://azstarnet.com//news/local/water-for-the-needy/article_7dcdb7dd-29d0-5977-9c94-8eeed0e27b57.html:::Water for the needy   :::
1278392400000:::http://azstarnet.com//news/local/water-for-the-needy/image_c27a11ea-f55a-5dd9-ac1e-6d0de8c7c0c4.html:::Water for the needy   :::
1278478800000:::http://azstarnet.com//news/local/upgrade-set-at-ina-sewage-facility/article_78e5399a-a444-5fc1-8efe-c85cd3ae8e7d.html:::Upgrade set at Ina sewage facility   :::
1278565200000:::http://azstarnet.com//news/local/life-stories-musician-tinney-hailed-at-pre-death-irish-wake/article_aa916472-fcba-55fd-a30d-3f36722d4ec1.html:::Life stories: Musician Tinney hailed at pre-death 'Irish wake'   :::
1278738000000:::http://azstarnet.com//news/local/ua-monsoon-exhibit-off-to-a-hair-raising-start/article_a9ec7930-afe7-5f32-a53e-b1e2d0c636ca.html:::UA monsoon exhibit off to a hair-raising start:::
1278997200000:::http://azstarnet.com//news/local/neighborhood-briefs/article_9f8592a0-45bb-5846-a18c-169de00027b3.html:::Neighborhood Briefs   :::
1278997200000:::http://azstarnet.com//news/local/tucson-woman-killed-while-tubing-in-calif-river/article_0d835a80-8eac-11df-819a-001cc4c002e0.html:::Tucson woman, 20, killed while tubing in Calif. river:::
1279083600000:::http://azstarnet.com//news/local/govt-and-politics/elections/political-notebook-dems-challenge-paton-s-mileage-bookkeeping/article_c72b94b5-213f-5e0c-9298-eba5a2eaa11d.html:::Political notebook: Dems challenge Paton's mileage bookkeeping   :::
1279083600000:::http://azstarnet.com//news/local/local-grad-swept-to-her-death-in-tubing-accident/article_ccb3cf15-e377-55ac-9fbb-93631666cd2c.html:::Local grad swept to her death in tubing accident   :::
1279429200000:::http://azstarnet.com//news/local/political-events/article_03b86948-924c-11df-8d6e-001cc4c002e0.html:::Political Events:::
1279515600000:::http://azstarnet.com//news/local/a-bubbly-debut-at-water-park/article_36725949-76b9-5633-92e1-881ad5efb55b.html:::A BUBBLY Debut at water park   :::
1279515600000:::http://azstarnet.com//news/local/a-bubbly-debut-at-water-park/image_01bac08a-325f-573c-b15b-ef4788025266.html:::A BUBBLY Debut at water park   :::
1279688400000:::http://azstarnet.com//news/local/workers-will-yank-invasive-grass/article_cd63a08e-cf38-5567-8623-a66871288550.html:::Workers will yank invasive grass   :::
1279688400000:::http://azstarnet.com//news/local/storm-s-bark-mostly-worse-than-bite/article_8b300635-f736-5022-8798-6c4f6ba96135.html:::Storm's bark mostly worse than bite   :::
1279861200000:::http://azstarnet.com//news/local/sacred-runners-carry-prayers-to-mt-graham/article_678391ab-3b4c-5947-b351-f8f4cef99dc4.html:::Sacred runners carry prayers to Mt. Graham   :::
1279861200000:::http://azstarnet.com//staff/brian-j-pedersen/tucson-area-under-flood-advisory/article_ed97400a-968b-11df-9657-001cc4c002e0.html:::Tucson area under flood advisory :::
1280034000000:::http://azstarnet.com//news/local/little-poca-cosa-clientele-have-gift-for-giving/article_eb7cb444-e342-5335-a9fa-b50553c94cc6.html:::Little Poca Cosa, clientele have gift for giving   :::
1280206800000:::http://azstarnet.com//staff/brian-j-pedersen/storms-knock-out-power-to-tucson-area-customers/article_b2f05466-99bd-11df-bcf7-001cc4c03286.html:::Storms knock out power to 900 Tucson-area customers:::
1280379600000:::http://azstarnet.com//news/local/groups-offer-homeless-aid-in-dealing-with-heat-rain/article_e9b62815-c4ea-5bcb-866e-42a224bf8e63.html:::Groups offer homeless aid in dealing with heat, rain   :::
1280466000000:::http://azstarnet.com//news/local/heavy-rain-runoff-causes-flooding-in-nogales-az/article_5ffd9218-9c52-11df-9645-001cc4c03286.html:::Heavy rain runoff causes flooding in Nogales, AZ:::
1280466000000:::http://azstarnet.com//news/local/water-in-the-tanque-verde-creek-could-rise-to-feet/article_0c163278-9c56-11df-96a7-001cc4c03286.html:::Water in the Tanque Verde Creek could rise to 13 feet overnight:::
1280552400000:::http://azstarnet.com//news/local/flooding-damage-in-nogales/article_ff02be42-4c56-5b60-8a4d-acf962ceb586.html:::Flooding damage in Nogales   :::
1280552400000:::http://azstarnet.com//news/local/flooding-a-concern-as-santa-cruz-river-rises-northwest-of/article_5aa237d2-5c74-5a87-8995-940d89c9366b.html:::Flooding a concern as Santa Cruz River rises northwest of Tucson:::
1280638800000:::http://azstarnet.com//news/local/torrent-swamps-homes-near-tanque-verde-wash/image_f4bef4dd-fdb8-55fd-9b15-ef515f428464.html:::Torrent swamps homes near Tanque Verde Wash   :::
1280638800000:::http://azstarnet.com//news/local/torrent-swamps-homes-near-tanque-verde-wash/article_9ae410c7-3470-584c-9562-f2a0ac5d6a9d.html:::Torrent swamps homes near Tanque Verde Wash   :::
1280725200000:::http://azstarnet.com//news/local/road-runner-new-crosswalk-concept-tested-on-ua-campus/article_772a1142-999c-5122-9ae9-f13c0f915076.html:::Road runner: New crosswalk concept tested on UA campus   :::
1280898000000:::http://azstarnet.com//news/local/ua-to-send-high-res-stereo-color-camera-to-mars/article_25064512-4e93-5532-b6c1-5b1548603617.html:::UA to send high-res stereo color camera to Mars   :::
1281070800000:::http://azstarnet.com//news/local/dirtying-up-the-tcc-arena-to-make-a-tidy-bmx/image_6e6a6bc5-ecdb-57b5-8a7a-80813927dd3b.html:::Dirtying up the TCC Arena to make a tidy BMX track   :::
1281070800000:::http://azstarnet.com//news/local/dirtying-up-the-tcc-arena-to-make-a-tidy-bmx/article_4ff29671-16e3-5faa-b571-0841b5da6fd0.html:::Dirtying up the TCC Arena to make a tidy BMX track   :::
1281070800000:::http://azstarnet.com//news/local/years-ago-today-the-ice-age-arrived-in-a-grateful/article_be9c7793-51aa-50c6-bcbe-2bb4070e2583.html:::131 years ago today, the ice age arrived in a grateful Old Pueblo   :::
1281157200000:::http://azstarnet.com//news/local/ben-s-bells-fitness-instructor-is-gentle-with-the-elderly/article_5b8cdf47-8dc2-5c57-a14a-47ebae3493e6.html:::Ben's Bells: Fitness instructor is gentle with the elderly   :::
1281243600000:::http://azstarnet.com//news/local/event-will-benefit-tusd-pupils/article_8d258681-46a0-569e-9b41-cbb23de2a818.html:::Event will benefit TUSD pupils   :::
1281416400000:::http://azstarnet.com//news/local/photos-a-refreshing-sabino-swim/article_cc01c88b-ad2a-547c-9248-a9e4d11d87ae.html:::Photos: A refreshing Sabino swim   :::
1281589200000:::http://azstarnet.com//news/local/young-hiker-airlifted-after-collapsing/article_1efedb2a-5091-511d-94a0-c9023928afaf.html:::Young hiker airlifted after collapsing   :::
1281675600000:::http://azstarnet.com//news/local/get-away-to-federal-lands-free-this-weekend/image_6286d841-c842-5f7d-8dd3-3da074fef433.html:::Get away to federal lands free this weekend   :::
1281675600000:::http://azstarnet.com//staff/jamar-younger/fire-officials-compass-blaze-caused-by-materials-used-to-install/article_e1406a1e-3c94-5dfd-90b7-af38c062c3a0.html:::Fire officials: Compass blaze caused by materials used to install wood floor:::
1281762000000:::http://azstarnet.com//news/local/woman-asks-city-to-highlight-trash-bin-danger/article_6db9d728-6077-5511-9c2d-722455f276bf.html:::Woman asks city to highlight trash-bin danger   :::
1282107600000:::http://azstarnet.com//news/local/heat-a-constant-peril-on-trail/article_84389901-9dd4-5d7d-b360-ffe75b21313c.html:::Heat a constant peril on trail   :::
1282194000000:::http://azstarnet.com//news/local/battling-buffelgrass-with-herbicide/image_10ee6911-661d-5d54-b834-7e1540a6e991.html:::Battling buffelgrass with herbicide   :::
1282280400000:::http://azstarnet.com//news/local/boy-drowns-in-golf-course-pond/article_89d20ed1-b7d1-5971-a55a-9f80aaed6889.html:::Boy drowns in golf course pond   :::
1282453200000:::http://azstarnet.com//news/local/neto-s-tucson-on-tucson-s-anniversary-let-s-go/article_a078b6fc-ebda-5c7b-a682-c447099c00fe.html:::Neto's Tucson: On Tucson's anniversary, let's go back in time   :::
1282626000000:::http://azstarnet.com//news/local/saguaro-park-to-detail-impact-of-ccc-program-of-depression/article_0f13f6b4-021a-58b0-91aa-89d82c6f7b54.html:::Saguaro Park to detail impact of CCC program of Depression   :::
1282712400000:::http://azstarnet.com//news/local/storms-strike-bringing-fires-power-outages-boy-s-rescue/article_0922e2d6-dd53-5bdc-a611-43fcd75f34ca.html:::Storms strike, bringing fires, power outages, boy's rescue   :::
1282798800000:::http://azstarnet.com//news/local/boy-nearly-drowns-in-tucson-home/article_ea329320-b197-11df-bd0a-001cc4c002e0.html:::Boy, 5, nearly drowns in Tucson home:::
1282971600000:::http://azstarnet.com//news/local/man-rescued-from-midtown-wash/article_194bbcd2-b327-11df-a638-001cc4c002e0.html:::Man rescued from midtown wash:::
1283058000000:::http://azstarnet.com//news/local/neighbors-history-bubbles-up-in-debate-over-fountains/article_54e9c9ce-0b71-590b-85f9-2ea83b95723b.html:::Neighbors: History bubbles up in debate over fountains   :::
1283835600000:::http://azstarnet.com//news/local/endangered-frogs-tadpoles-released-in-wild/article_8884ff71-161b-5edf-8629-1cbcbd64f719.html:::Endangered frogs, tadpoles released in wild   :::
1284008400000:::http://azstarnet.com//news/local/mars-was-a-habitable-planet-more-recently-than-we-knew/article_fdf96298-bc47-11df-85b1-001cc4c002e0.html:::Mars was a habitable planet more recently than we knew, UA team says:::
1284267600000:::http://azstarnet.com//news/local/neto-s-tucson-like-the-trees-he-trims-his-memories/article_9ce1ea9d-fa0a-55cf-80d6-94e25f6ae4ad.html:::Neto's Tucson: Like the trees he trims, his memories are rooted along Santa Cruz   :::
1284958800000:::http://azstarnet.com//news/local/there-s-sheen-of-good-even-with-pond-scum/article_e7d5b110-cefe-5062-9b38-74382bb856c1.html:::There's sheen of good, even with 'pond scum'   :::
1285909200000:::http://azstarnet.com//news/local/neighborhood-briefs/article_9d0c4961-8209-5f6d-89a9-a1d55818e5fb.html:::Neighborhood Briefs   :::
1285909200000:::http://azstarnet.com//news/local/endless-summer-september-was-second-hottest-on-record/image_d00b648a-d4a3-5ab6-bdfb-8a60f9595935.html:::Endless summer: September was second-hottest on record   :::
1286082000000:::http://azstarnet.com//news/local/neighbors-may-be-key-to-mosquito-woe/article_0797a084-92c3-5c8b-bfe4-79b3f68db240.html:::Neighbors may be key to mosquito woe   :::
1286341200000:::http://azstarnet.com//news/local/lightning-hits-nw-side-homes/article_b561cce8-1499-5232-934a-e17d8241c18a.html:::Lightning hits 2 NW-side homes   :::
1286686800000:::http://azstarnet.com//news/local/neighbors-busy-mom-finds-yet-another-role-operating-kids-activities/article_569f133d-60c3-54df-90c4-ce8c8984ae22.html:::Neighbors: Busy mom finds yet another role operating kids-activities website   :::
1286946000000:::http://azstarnet.com//news/local/community-calendar/article_846bc429-2e32-5960-b9dd-095b7ac0f91c.html:::Community calendar   :::
1287550800000:::http://azstarnet.com/http://www.cafepress.com/azstarnet:::Browse the StarNet Shop for Day of the Dead gear:::
1287810000000:::http://azstarnet.com//news/local/exhibition-gives-glimpse-into-ship-passengers-lives/article_cefa0f8a-f986-5463-b952-f7d2a8083d58.html:::Exhibition gives glimpse into ship passengers' lives   :::
1287982800000:::http://azstarnet.com//news/local/ariz-guardsmen-return-from-war/article_9a4a5741-0612-5a36-809e-b97e727e8b7c.html:::Ariz. guardsmen return from war   :::
1287982800000:::http://azstarnet.com//news/local/education/college/preserving-body-parts-is-a-labor-of-love-at-ua/article_4aa41a59-acfc-51f1-ad42-7b9d2e8cbe6e.html:::Preserving body parts is a labor of love at UA's Plastination Lab   :::
1288069200000:::http://azstarnet.com//news/local/education/college/global-water-projects-keep-ua-group-busy/article_ed8b4d83-7f2e-50ff-9821-6fd5683c3316.html:::Global water projects keep UA group busy   :::
1288069200000:::http://azstarnet.com//news/local/education/college/global-water-projects-keep-ua-group-busy/image_8e8c73af-cf2d-51c6-8e06-0b30fe3fed43.html:::Global water projects keep UA group busy   :::
1288501200000:::http://azstarnet.com//news/local/josh-brodesky-gov-t-wants-to-make-example-of-man/article_26cb3ca9-a82b-51d3-b5c0-81a2bf522317.html:::Josh Brodesky: Gov't wants to make example of man who just spread love for cats too thin   :::
1288501200000:::http://azstarnet.com//news/local/m-set-for-border-habitat-work/article_e2f4eb0f-6ade-5974-9c94-b39f9954fd3a.html:::$7M set for border habitat work   :::
1289019600000:::http://azstarnet.com//news/local/sun-tran-centers-to-lose-info-booths-as-result-of/article_e55ac070-ea2c-11df-9530-001cc4c002e0.html:::3 Sun Tran centers to lose info booths as result of cuts:::
1289106000000:::http://azstarnet.com//news/local/the-scoop-kold-names-whitworth-new-morning-co-anchor/article_00054a17-f8fe-5083-ac3d-28fa165ee026.html:::The scoop: KOLD names Whitworth new morning co-anchor   :::
1289106000000:::http://azstarnet.com//news/local/sun-tran-centers-to-lose-info-booths-as-result-of/article_0c9c4513-2b4c-53d2-a432-cc53de877c40.html:::3 Sun Tran centers to lose info booths as result of cuts   :::
1289628000000:::http://azstarnet.com//lifestyles/faith-and-values/ben-s-bells-creator-of-bmx-park-belled-a-role/article_b1c3b55e-e89f-5342-a75a-36fc5d5848e8.html:::Ben's Bells: Creator of BMX park belled; 'a role model for these kids'   :::
1289628000000:::http://azstarnet.com//business/local/sw-gas-seeks-rate-hike-of-a-month-in-winter/article_815ec0e0-d206-5377-85e3-22ea8d9d31c8.html:::SW Gas seeks rate hike of $9 a month in winter   :::
1289628000000:::http://azstarnet.com//business/local/pecan-grove-owners-show-plans-for-big-development/article_301cf087-05fe-5b0f-8d16-fd1d120ee891.html:::Pecan-grove owners show plans for big development   :::
1289800800000:::http://azstarnet.com//news/local/as-many-houses-stand-vacant-water-thieves-tapping-in/article_49c6607e-3c03-51a3-aa96-4197c59979cf.html:::As many houses stand vacant, water thieves tapping in   :::
